{
  "users": [
    {
      "email": "irinasamokhina1996@gmail.com",
      "password": "123456",
      "name": "Irina",
      "id": 1
    },
    {
      "email": "olga@inbox.ru",
      "password": "123456",
      "name": "Olga",
      "id": 2
    },
    {
      "email": "pavel@inbox.ru",
      "password": "123456789",
      "name": "Pavel",
      "id": 3
    },
    {
      "email": "dima@mail.ru",
      "password": "123456",
      "name": "Dmitry",
      "id": 4
    },
    {
      "email": "sveta@mail.ru",
      "password": "123456",
      "name": "Sveta",
      "id": 5
    }
  ]
}